C:\Users\Zarema\Documents\java\java_zarema_huako_it_drive_1\HomeWork_2_1_3\Library project\src\main\java\ru\itdrive\directory\utils\DirectoryAnalysis.java
C:\Users\Zarema\Documents\java\java_zarema_huako_it_drive_1\HomeWork_2_1_3\Library project\src\main\java\ru\itdrive\directory\utils\FileUtility.java
C:\Users\Zarema\Documents\java\java_zarema_huako_it_drive_1\HomeWork_2_1_3\Library project\src\main\java\ru\itdrive\directory\utils\CatalogAnalysisThread.java
C:\Users\Zarema\Documents\java\java_zarema_huako_it_drive_1\HomeWork_2_1_3\Library project\src\main\java\ru\itdrive\directory\app\Program.java
C:\Users\Zarema\Documents\java\java_zarema_huako_it_drive_1\HomeWork_2_1_3\Library project\src\main\java\ru\itdrive\directory\utils\Arguments.java
