C:\Users\Zarema\Documents\java\java_zarema_huako_it_drive_1\HomeWork_2_2_4\ChatServer\src\main\java\ru\itdrive\ChatServer\repositories\RoomRepository.java
C:\Users\Zarema\Documents\java\java_zarema_huako_it_drive_1\HomeWork_2_2_4\ChatServer\src\main\java\ru\itdrive\ChatServer\models\Room.java
C:\Users\Zarema\Documents\java\java_zarema_huako_it_drive_1\HomeWork_2_2_4\ChatServer\src\main\java\ru\itdrive\ChatServer\models\User.java
C:\Users\Zarema\Documents\java\java_zarema_huako_it_drive_1\HomeWork_2_2_4\ChatServer\src\main\java\ru\itdrive\ChatServer\models\Message.java
C:\Users\Zarema\Documents\java\java_zarema_huako_it_drive_1\HomeWork_2_2_4\ChatServer\src\main\java\ru\itdrive\ChatServer\services\SocketServer.java
C:\Users\Zarema\Documents\java\java_zarema_huako_it_drive_1\HomeWork_2_2_4\ChatServer\src\main\java\ru\itdrive\ChatServer\app\Arguments.java
C:\Users\Zarema\Documents\java\java_zarema_huako_it_drive_1\HomeWork_2_2_4\ChatServer\src\main\java\ru\itdrive\ChatServer\repositories\СrudRepository.java
C:\Users\Zarema\Documents\java\java_zarema_huako_it_drive_1\HomeWork_2_2_4\ChatServer\src\main\java\ru\itdrive\ChatServer\repositories\MessageRepositoryJdbcImpl.java
C:\Users\Zarema\Documents\java\java_zarema_huako_it_drive_1\HomeWork_2_2_4\ChatServer\src\main\java\ru\itdrive\ChatServer\repositories\UserRepositoryJdbcImpl.java
C:\Users\Zarema\Documents\java\java_zarema_huako_it_drive_1\HomeWork_2_2_4\ChatServer\src\main\java\ru\itdrive\ChatServer\services\MessagesService.java
C:\Users\Zarema\Documents\java\java_zarema_huako_it_drive_1\HomeWork_2_2_4\ChatServer\src\main\java\ru\itdrive\ChatServer\repositories\UserRepository.java
C:\Users\Zarema\Documents\java\java_zarema_huako_it_drive_1\HomeWork_2_2_4\ChatServer\src\main\java\ru\itdrive\ChatServer\app\MainServer.java
C:\Users\Zarema\Documents\java\java_zarema_huako_it_drive_1\HomeWork_2_2_4\ChatServer\src\main\java\ru\itdrive\ChatServer\repositories\MessageRepository.java
C:\Users\Zarema\Documents\java\java_zarema_huako_it_drive_1\HomeWork_2_2_4\ChatServer\src\main\java\ru\itdrive\ChatServer\services\SocketServerImpl.java
C:\Users\Zarema\Documents\java\java_zarema_huako_it_drive_1\HomeWork_2_2_4\ChatServer\src\main\java\ru\itdrive\ChatServer\jdbc\DataSourseSimpleImpl.java
C:\Users\Zarema\Documents\java\java_zarema_huako_it_drive_1\HomeWork_2_2_4\ChatServer\src\main\java\ru\itdrive\ChatServer\repositories\RoomRepositoryJdbcImpl.java
C:\Users\Zarema\Documents\java\java_zarema_huako_it_drive_1\HomeWork_2_2_4\ChatServer\src\main\java\ru\itdrive\ChatServer\services\MessagesServiceImpl.java
